Functions and Iterations
…
## [1] "/Users/meenakshikushwaha/Dropbox/R projects/github/CSTEP_R_course/data/join_data1.csv"
## [2] "/Users/meenakshikushwaha/Dropbox/R projects/github/CSTEP_R_course/data/join_data2.csv"

Step 3: Read and combine all files using map_dfr()

my_df <- my_files %>% 
  map_dfr(read_csv) 

my_df

## # A tibble: 200 × 14
##     ...1 date                area     ws    wd   no2 Date  Area    nox    o3
##    <dbl> <dttm>              <chr> <dbl> <dbl> <dbl> <chr> <chr> <dbl> <dbl>
##  1     1 2005-06-19 09:00:00 BLR     3.1   150    70 <NA>  <NA>     NA    NA
##  2     2 2005-06-19 10:00:00 BLR     3.6   160    61 <NA>  <NA>     NA    NA
##  3     3 2005-06-19 11:00:00 BLR     3.6   170    70 <NA>  <NA>     NA    NA
##  4     4 2005-06-19 12:00:00 BLR     5.2   160    82 <NA>  <NA>     NA    NA
##  5     5 2005-06-19 13:00:00 BLR     5.7   180    68 <NA>  <NA>     NA    NA
##  6     6 2005-06-19 14:00:00 BLR     5.7   190    71 <NA>  <NA>     NA    NA
##  7     7 2005-06-19 15:00:00 BLR     5.7   190    68 <NA>  <NA>     NA    NA
##  8     8 2005-06-19 16:00:00 BLR     5.7   190    75 <NA>  <NA>     NA    NA
##  9     9 2005-06-19 17:00:00 BLR     6.2   190    85 <NA>  <NA>     NA    NA
## 10    10 2005-06-19 18:00:00 BLR     5.7   190    74 <NA>  <NA>     NA    NA
## # … with 190 more rows, and 4 more variables: pm10 <dbl>, so2 <lgl>, co <dbl>,
## #   pm25 <dbl>
…
