Statistics and Modelling
…
Linear model per country

by_country_lm <- by_country %>% 
  mutate(model = map(data, ~lm(lifeExp ~ year1950, data = .)))# to each element of data column apply lm() function
by_country_lm

## # A tibble: 142 × 4
##    continent country                                data model 
##    <fct>     <fct>                    <list<tibble[,5]>> <list>
##  1 Africa    Algeria                            [12 × 5] <lm>  
##  2 Africa    Angola                             [12 × 5] <lm>  
##  3 Africa    Benin                              [12 × 5] <lm>  
##  4 Africa    Botswana                           [12 × 5] <lm>  
##  5 Africa    Burkina Faso                       [12 × 5] <lm>  
##  6 Africa    Burundi                            [12 × 5] <lm>  
##  7 Africa    Cameroon                           [12 × 5] <lm>  
##  8 Africa    Central African Republic           [12 × 5] <lm>  
##  9 Africa    Chad                               [12 × 5] <lm>  
## 10 Africa    Comoros                            [12 × 5] <lm>  
## # … with 132 more rows
…
Cleaning model results with broom

gm_models <- by_country_lm %>% 
  mutate(glance= map(model, glance),
         tidy = map(model, tidy),
         augment = map(model, augment),
         rsq = map_dbl(glance, "r.squared"))
gm_models

## # A tibble: 142 × 8
##    continent country                data model glance   tidy     augment     rsq
##    <fct>     <fct>              <list<t> <lis> <list>   <list>   <list>    <dbl>
##  1 Africa    Algeria            [12 × 5] <lm>  <tibble> <tibble> <tibble> 0.985 
##  2 Africa    Angola             [12 × 5] <lm>  <tibble> <tibble> <tibble> 0.888 
##  3 Africa    Benin              [12 × 5] <lm>  <tibble> <tibble> <tibble> 0.967 
##  4 Africa    Botswana           [12 × 5] <lm>  <tibble> <tibble> <tibble> 0.0340
##  5 Africa    Burkina Faso       [12 × 5] <lm>  <tibble> <tibble> <tibble> 0.919 
##  6 Africa    Burundi            [12 × 5] <lm>  <tibble> <tibble> <tibble> 0.766 
##  7 Africa    Cameroon           [12 × 5] <lm>  <tibble> <tibble> <tibble> 0.680 
##  8 Africa    Central African R… [12 × 5] <lm>  <tibble> <tibble> <tibble> 0.493 
##  9 Africa    Chad               [12 × 5] <lm>  <tibble> <tibble> <tibble> 0.872 
## 10 Africa    Comoros            [12 × 5] <lm>  <tibble> <tibble> <tibble> 0.997 
## # … with 132 more rows
…
